Блок технического сопровождения;;
1;Отсутствие данных по смартфону (отсутствие смартфона)
2;Сбой данных по смартфону;
3;Отсутствие видеорегистрации;
4;Начало съемки не соответствует началу дня;
5;Видео не до конца рабочего дня (не полное);
6;Неверная дата/время на регистраторе;
7;Неверная остановка СММ с регистратором при выполнений работ(не видно объекта и выполнения работ);
8;Складирование вещей, инструментов и принадлежностей перед объективом регистратора;
9;Прерывание видеосъемки в процессе выполнения работ ;
Блок организация труда и заработной платы;;
10;Не выполнение работ указанных в ФРД;
11;Не выполние работы: Проверка работы ШВ;
12;Не выполние работы: Проверка меток КШМ;
13;Не выполние работы: Проверка уровня масла в редукторе;
14;Не выполние работы: Запись в журнале учета работы скважины;
15;Не выполние работы: смазка ПШ;
16;Не выполние работы: подтяжка СУСГ;
17;Не выполние работы: подтяжка ремней;
18;Не выполние работы: отбор проб;
19;Не выполние работы: замена ремней;
20;Не выполние работы: опрессовка скважины;
21;Не выполние работы: внешний осмотр Лафкин;
22;Не выполние работы: Стравливание Рзатр;
23;Не выполние работы: Замена ПШ;
24;Не выполние работы: Замена СУСГ;
25;Не выполние работы: Проверка ППК, ПСМ, вентСКЖ;
26;Не выполние работ: снятие показ.манометров;
27;Не выполние работы: Проверка дозатора;
Блок охраны труда и промышленной безопасности;;
28;Превышение скорости;
29;Езда без шлема, отсутствие СИЗ и спец одежды;
30;Установка динамографа без остановки СК;
31;Нахождение за ограждением без остановки СК и не установки руч.тормоза;
32;Вход в нефтенасосную и ГЗУ без запуска вент.установки;
33;Несоблюдение времени провертривания перед обслуживанием ГЗУ, ДНС и т.д.;
34;Нахождение под балансиром СК при проведений работ;
35;Нахождение в зоне возможного вылета прибора;
Технологический блок;;
36;Стравливание Рзатр в атмосферу;
37;Несоблюдение времени отбора проб;
38;Опрессовка скважины без остановки;
39;Натяжение текстропных ремней без прибора;
40;Не проведение продувки, путем открывания затр.задвижки для исключения засорения прибора нефтепродуктами и определения фонтанирования;
41;Наличие замазученности на территории скважины;
42;Не скошена трава на территории скважины (не убран снег);
43;Незакопанные траншеи и ямы на территории скважины;
44;Отсутствие мех.защиты кабеля УЭЦН;
45;Наличие БРС на монифольдной линий;
46;Отсутствие кожуха КРП;
47;Отсутствие ограждения КШМ;
